<svg width="200" height="50" xmlns="http://www.w3.org/2000/svg">
    <rect x="5" y="10" width="32" height="32" fill="none" stroke="black" stroke-width="4"/>
    <text x="11" y="35" font-family="Arial" font-size="26px" font-weight="bold">R</text>
    <text x="42" y="35" font-family="Arial" font-size="24px" font-weight="bold">eservations</text>
</svg>
